[
    "faith",
    "gloriamatvien",
    "firedancer",
    "amouranth",
    "kaellyn",
    "ibabyrainbow",
    "spoopykitt",
    "xoaeriel",
    "blinkx_",
    "taylor_jevaux",
    "indiefoxx",
    "julienneby",
    "jadethejaguar",
    "varvaria",
    "shyphoebe",
    "leynainu",
    "katiabang",
    "kiaraakitty",
    "melina",
    "kandyland",
    "karna",
    "djarii",
    "theoneandonlydragon",
    "athnessa",
    "niva",
    "enotishka18",
    "krypto_nat",
    "codemiko",
    "laurenalexis_x",
    "li3amusic",
    "officialevelynclaire",
    "chloelock",
    "olesyabulletka",
    "evaanna",
    "milliemiless",
    "for_line",
    "caxyhh",
    "nickykittyxx",
    "dahlia_rex",
    "silfystar",
    "adrianachechik",
    "linneaa",
    "ritaglitch",
    "pokimane",
    "irina_ginger",
    "violettskye",
    "marinemammalrescue",
    "mishdj_",
    "bexuki",
    "sukiyuki3"
]
